ojs_observable-r
…
here() starts at /Users/johngavin/docs_gh/rix_setup

Attaching package: 'dplyr'

The following objects are masked from 'package:stats':

    filter, lag

The following objects are masked from 'package:base':

    intersect, setdiff, setequal, union

data

# A tibble: 480 × 29
   PEAKID PKNAME      PKNAME2 LOCATION HEIGHTM HEIGHTF HIMAL HIMAL_FACTOR REGION
   <chr>  <chr>       <chr>   <chr>      <dbl>   <dbl> <dbl> <chr>         <dbl>
 1 AMAD   Ama Dablam  Amai D… Khumbu …    6814   22356    12 Khumbu            2
 2 AMPG   Amphu Gyab… Amphu … Khumbu …    5630   18471    12 Khumbu            2
 3 ANN1   Annapurna I <NA>    Annapur…    8091   26545     1 Annapurna         5
 4 ANN2   Annapurna … <NA>    Annapur…    7937   26040     1 Annapurna         5
 5 ANN3   Annapurna … <NA>    Annapur…    7555   24787     1 Annapurna         5
 6 ANN4   Annapurna … <NA>    Annapur…    7525   24688     1 Annapurna         5
 7 ANNE   Annapurna … <NA>    Annapur…    8026   26332     1 Annapurna         5
 8 ANNM   Annapurna … <NA>    Annapur…    8051   26414     1 Annapurna         5
 9 ANNS   Annapurna … Annapu… Annapur…    7219   23684     1 Annapurna         5
10 APIM   Api Main    <NA>    Api Him…    7132   23399     2 Api/Byas Ri…      7
# ℹ 470 more rows
# ℹ 20 more variables: REGION_FACTOR <chr>, OPEN <lgl>, UNLISTED <lgl>,
#   TREKKING <lgl>, TREKYEAR <dbl>, RESTRICT <chr>, PHOST <dbl>,
#   PHOST_FACTOR <chr>, PSTATUS <dbl>, PSTATUS_FACTOR <chr>, PEAKMEMO <dbl>,
#   PYEAR <dbl>, PSEASON <dbl>, PEXPID <chr>, PSMTDATE <chr>, PCOUNTRY <chr>,
#   PSUMMITERS <chr>, PSMTNOTE <chr>, REFERMEMO <dbl>, PHOTOMEMO <dbl>
…
